alu_uvm_project/dv/dump.vcd
$date
	Sun Apr  6 19:52:32 2025
$end
$version
	QuestaSim Version 2024.1
$end
$timescale
	1ns
$end

$scope module uvm_root $end
$upscope $end

$scope module alu_top_tb $end
$var reg 1 ! clk $end
$var reg 1 " rst_n $end
$var integer 32 # no_of_resets $end
$var integer 32 $ test_timeout $end

$scope task rst $end
$upscope $end

$scope module ALU1 $end
$var parameter 32 % INPUT_WIDTH $end
$var parameter 32 & OUTPUT_WIDTH $end
$var parameter 32 ' A_OP_WIDTH $end
$var parameter 32 ( B_OP_WIDTH $end
$var parameter 3 ) A_ADD $end
$var parameter 3 * A_SUB $end
$var parameter 3 + A_XOR $end
$var parameter 3 , A_AND1 $end
$var parameter 3 - A_AND2 $end
$var parameter 3 . A_OR $end
$var parameter 3 / A_XNOR $end
$var parameter 3 0 A_NULL $end
$var parameter 2 1 B01_NAND $end
$var parameter 2 2 B01_ADD1 $end
$var parameter 2 3 B01_ADD2 $end
$var parameter 2 4 B01_NULL $end
$var parameter 2 5 B11_XOR $end
$var parameter 2 6 B11_XNOR $end
$var parameter 2 7 B11_A_SUB_1 $end
$var parameter 2 8 B11_B_ADD_2 $end
$var wire 1 9 clk $end
$var wire 1 : rst_n $end
$var wire 1 ; ALU_en $end
$var wire 1 < a_en $end
$var wire 1 = b_en $end
$var wire 1 > a_op [2] $end
$var wire 1 ? a_op [1] $end
$var wire 1 @ a_op [0] $end
$var wire 1 A b_op [1] $end
$var wire 1 B b_op [0] $end
$var wire 1 C A [4] $end
$var wire 1 D A [3] $end
$var wire 1 E A [2] $end
$var wire 1 F A [1] $end
$var wire 1 G A [0] $end
$var wire 1 H B [4] $end
$var wire 1 I B [3] $end
$var wire 1 J B [2] $end
$var wire 1 K B [1] $end
$var wire 1 L B [0] $end
$var reg 6 M C [5:0] $end
$var wire 1 N operand_A $end
$var wire 1 O operand_B01 $end
$var wire 1 P operand_B11 $end
$var wire 1 Q valid_mode $end
$var reg 6 R result [5:0] $end
$var reg 6 S prev_result [5:0] $end
$upscope $end
$upscope $end

$scope begin uvm_pkg $end
$var parameter 32 T UVM_HDL_MAX_WIDTH $end
$var parameter 32 U UVM_STREAMBITS $end
$var parameter 32 V UVM_RADIX $end
$var parameter 32 W UVM_MACRO_NUMFLAGS $end
$var parameter 32 X UVM_DEFAULT $end
$var parameter 32 Y UVM_ALL_ON $end
$var parameter 32 Z UVM_FLAGS_ON $end
$var parameter 32 [ UVM_FLAGS_OFF $end
$var parameter 32 \ UVM_COPY $end
$var parameter 32 ] UVM_NOCOPY $end
$var parameter 32 ^ UVM_COMPARE $end
$var parameter 32 _ UVM_NOCOMPARE $end
$var parameter 32 ` UVM_PRINT $end
$var parameter 32 a UVM_NOPRINT $end
$var parameter 32 b UVM_RECORD $end
$var parameter 32 c UVM_NORECORD $end
$var parameter 32 d UVM_PACK $end
$var parameter 32 e UVM_NOPACK $end
$var parameter 32 f UVM_PHYSICAL $end
$var parameter 32 g UVM_ABSTRACT $end
$var parameter 32 h UVM_READONLY $end
$var parameter 32 i UVM_NODEFPRINT $end
$var parameter 32 j UVM_MACRO_EXTRAS $end
$var parameter 32 k UVM_FLAGS $end
$var parameter 32 l UVM_UNPACK $end
$var parameter 32 m UVM_CHECK_FIELDS $end
$var parameter 32 n UVM_END_DATA_EXTRA $end
$var parameter 32 o UVM_START_FUNCS $end
$var parameter 32 p UVM_SET $end
$var parameter 32 q UVM_SETINT $end
$var parameter 32 r UVM_SETOBJ $end
$var parameter 32 s UVM_SETSTR $end
$var parameter 32 t UVM_END_FUNCS $end
$var parameter 32 u UVM_STR_CRC_POLYNOMIAL $end
$var parameter 32 v UVM_STDOUT $end
$var parameter 32 w UVM_LINE_WIDTH $end
$var parameter 32 x UVM_NUM_LINES $end
$var parameter 32 y UVM_SMALL_STRING $end
$var parameter 32 z UVM_LARGE_STRING $end
$var reg 1 { uvm_start_uvm_declarations $end
$var integer 32 | uvm_global_random_seed $end
$var integer 32 } UVM_UNBOUNDED_CONNECTIONS $end

$scope function uvm_hdl_check_path $end
$var integer 32 ~ uvm_hdl_check_path $end
$upscope $end

$scope function uvm_hdl_deposit $end
$var integer 32 !! uvm_hdl_deposit $end
$var reg 1024 "! value [1023:0] $end
$upscope $end

$scope function uvm_hdl_force $end
$var integer 32 #! uvm_hdl_force $end
$var reg 1024 $! value [1023:0] $end
$upscope $end

$scope task uvm_hdl_force_time $end
$var reg 1024 %! value [1023:0] $end
$var time 64 &! force_time $end
$upscope $end

$scope function uvm_hdl_release_and_read $end
$var integer 32 '! uvm_hdl_release_and_read $end
$var reg 1024 (! value [1023:0] $end
$upscope $end

$scope function uvm_hdl_release $end
$var integer 32 )! uvm_hdl_release $end
$upscope $end

$scope function uvm_hdl_read $end
$var integer 32 *! uvm_hdl_read $end
$var reg 1024 +! value [1023:0] $end
$upscope $end

$scope function uvm_dpi_get_next_arg_c $end
$upscope $end

$scope function uvm_dpi_get_tool_name_c $end
$upscope $end

$scope function uvm_dpi_get_tool_version_c $end
$upscope $end

$scope function uvm_dpi_get_next_arg $end
$upscope $end

$scope function uvm_dpi_get_tool_name $end
$upscope $end

$scope function uvm_dpi_get_tool_version $end
$upscope $end

$scope function uvm_dpi_regcomp $end
$upscope $end

$scope function uvm_dpi_regexec $end
$var integer 32 ,! uvm_dpi_regexec $end
$upscope $end

$scope function uvm_dpi_regfree $end
$upscope $end

$scope function uvm_re_match $end
$var integer 32 -! uvm_re_match $end
$upscope $end

$scope function uvm_dump_re_cache $end
$upscope $end

$scope function uvm_glob_to_re $end
$upscope $end

$scope function uvm_revision_string $end
$upscope $end

$scope function uvm_radix_to_string $end
$var integer 32 .! radix $end
$upscope $end

$scope function uvm_instance_scope $end
$var reg 8 /! c [7:0] $end
$var integer 32 0! pos $end
$upscope $end

$scope function uvm_oneway_hash $end
$var integer 32 1! uvm_oneway_hash $end
$var integer 32 2! seed $end
$var reg 1 3! msb $end
$var reg 8 4! current_byte [7:0] $end
$var reg 32 5! crc1 [31:0] $end
$upscope $end

$scope function uvm_create_random_seed $end
$var integer 32 6! uvm_create_random_seed $end
$upscope $end

$scope function uvm_object_value_str $end
$upscope $end

$scope function uvm_leaf_scope $end
$var reg 8 7! scope_separator [7:0] $end
$var reg 8 8! bracket_match [7:0] $end
$var integer 32 9! pos $end
$var integer 32 :! bmatches $end
$upscope $end

$scope function uvm_vector_to_string $end
$var reg 4096 ;! value [4095:0] $end
$var integer 32 <! size $end
$var integer 32 =! radix $end
$upscope $end

$scope function uvm_get_array_index_int $end
$var integer 32 >! uvm_get_array_index_int $end
$var reg 1 ?! is_wildcard $end
$var integer 32 @! i $end
$upscope $end

$scope function uvm_get_array_index_string $end
$var reg 1 A! is_wildcard $end
$var integer 32 B! i $end
$upscope $end

$scope function uvm_is_array $end
$var reg 1 C! uvm_is_array $end
$upscope $end

$scope function uvm_has_wildcard $end
$upscope $end

$scope task run_test $end
$upscope $end

$scope function global_stop_request $end
$upscope $end

$scope function set_global_timeout $end
$var time 64 D! timeout $end
$var reg 1 E! overridable $end
$upscope $end

$scope function set_global_stop_timeout $end
$var time 64 F! timeout $end
$upscope $end

$scope function uvm_report_enabled $end
$var reg 1 G! uvm_report_enabled $end
$var integer 32 H! verbosity $end
$var reg 2 I! severity [1:0] $end
$upscope $end

$scope function uvm_report $end
$var reg 2 J! severity [1:0] $end
$var integer 32 K! verbosity $end
$var integer 32 L! line $end
$upscope $end

$scope function uvm_report_info $end
$var integer 32 M! verbosity $end
$var integer 32 N! line $end
$upscope $end

$scope function uvm_report_warning $end
$var integer 32 O! verbosity $end
$var integer 32 P! line $end
$upscope $end

$scope function uvm_report_error $end
$var integer 32 Q! verbosity $end
$var integer 32 R! line $end
$upscope $end

$scope function uvm_report_fatal $end
$var integer 32 S! verbosity $end
$var integer 32 T! line $end
$upscope $end

$scope function uvm_string_to_severity $end
$var reg 1 U! uvm_string_to_severity $end
$var reg 2 V! sev [1:0] $end
$upscope $end

$scope function uvm_string_to_action $end
$upscope $end

$scope function set_config_int $end
$var reg 4096 W! value [4095:0] $end
$upscope $end

$scope function set_config_object $end
$var reg 1 X! clone $end
$upscope $end

$scope function set_config_string $end
$upscope $end

$scope function uvm_is_match $end
$var reg 1 Y! uvm_is_match $end
$upscope $end

$scope function uvm_string_to_bits $end
$var reg 115200 Z! uvm_string_to_bits [115199:0] $end
$upscope $end

$scope function uvm_bits_to_string $end
$var reg 115200 [! str [115199:0] $end
$upscope $end

$scope task uvm_wait_for_nba_region $end
$var integer 32 \! nba $end
$var integer 32 ]! next_nba $end
$upscope $end

$scope function uvm_split_string $end
$upscope $end

$scope function uvm_hdl_concat2string $end
$upscope $end
$upscope $end

$scope begin rst_uvm_pkg $end
$upscope $end

$scope begin alu_uvm_pkg $end
$var parameter 32 ^! INPUT_WIDTH $end
$var parameter 32 _! OUTPUT_WIDTH $end
$var parameter 32 `! A_OP_WIDTH $end
$var parameter 32 a! B_OP_WIDTH $end
$var parameter 32 b! CLK_PERIOD $end
$upscope $end

$scope begin questa_uvm_pkg $end
$upscope $end

$scope begin std $end
$upscope $end

$scope begin sva_helper_pkg $end
$var integer 32 c! OP_MODE_o $end
$var integer 32 d! ALU_EN_STATE_o $end
$var reg 3 e! OP_A_o [2:0] $end
$var reg 2 f! OP_B01_o [1:0] $end
$var reg 2 g! OP_B11_o [1:0] $end
$var reg 6 h! result [5:0] $end
$var reg 6 i! prev_result [5:0] $end
$var integer 32 j! pass_count $end
$var integer 32 k! fail_count $end
$var integer 32 l! op_a_pass_count $end
$var integer 32 m! op_a_fail_count $end
$var integer 32 n! op_b1_pass_count $end
$var integer 32 o! op_b1_fail_count $end
$var integer 32 p! op_b2_pass_count $end
$var integer 32 q! op_b2_fail_count $end
$var integer 32 r! reset_pass_count $end
$var integer 32 s! reset_fail_count $end
$var integer 32 t! null_op_count $end
$var integer 32 u! forbidden_result_count $end

$scope function compute_result $end
$upscope $end

$scope function format_error_msg $end
$upscope $end

$scope function is_null_operation $end
$upscope $end

$scope function is_forbidden_result $end
$upscope $end
$upscope $end
$enddefinitions $end
#0
$dumpvars
0?!
0A!
0C!
0E!
0G!
b0 I!
b0 J!
bx W!
0X!
1Y!
0!
0"
b0 M
bx R
bx S
0U!
b0 V!
bx Z!
bx [!
b0 e!
b0 f!
b0 g!
b0 h!
b0 i!
bx "!
bx $!
bx %!
bx (!
bx +!
1{
13!
b1110001 4!
b10010110101100010110101101011 5!
b1 ;!
b10000000000 T
b1000000000000 U
b1111000000000000000000000000 V
b10001 W
b10101010101 X
b101010101 Y
b101010101 Z
b0 [
b1 \
b10 ]
b100 ^
b1000 _
b10000 `
b100000 a
b1000000 b
b10000000 c
b100000000 d
b1000000000 e
b10000000000000 f
b100000000000000 g
b1000000000000000 h
b10000000000000000 i
b100000000000000000 j
b100000000000000001 k
b100000000000000010 l
b100000000000000011 m
b100000000000000100 n
b100000000000000101 o
b100000000000000110 p
b100000000000000110 q
b100000000000000111 r
b100000000000001000 s
b100000000000001000 t
b100110000010001110110110110 u
b1 v
b101 ^!
b110 _!
b11 `!
b10 a!
b101 b!
b101 %
b110 &
b11 '
b10 (
b0 )
b1 *
b10 +
b11 ,
b100 -
b101 .
b110 /
b111 0
b0 1
b1 2
b10 3
b11 4
b0 5
b1 6
b10 7
b11 8
b1111000 w
b1111000 x
b1110111111 y
b11100000111111111 z
b0 .!
b101110 7!
b0 8!
b11001 9!
b11111111111111111111111111111111 :!
b0 >!
b0 @!
b0 B!
b111110100 H!
b0 K!
b0 L!
b0 M!
b0 N!
b0 O!
b0 P!
b0 Q!
b0 R!
b0 S!
b0 T!
b100100 \!
b100100 ]!
b11111111111111111111111111111111 }
b100 #
b11000011010100000 $
b0 c!
b0 d!
b0 j!
b0 k!
b0 l!
b0 m!
b0 n!
b0 o!
b0 p!
b0 q!
b0 r!
b0 s!
b0 t!
b0 u!
b0 ~
b0 !!
b0 #!
b0 '!
b0 )!
b0 *!
b1 ,!
b0 -!
b1100101110011111100110100100110 |
b101110 /!
b111 0!
b11111010101000011111011100010011 1!
b1100101110011111100110100100110 2!
b10110111111100100011001010101001 6!
b100000 <!
b10000000000000000000000000 =!
bx D!
bx F!
bx &!
xN
xO
xP
0Q
xL
xK
xJ
xI
xH
xG
xF
xE
xD
xC
xB
xA
x@
x?
x>
x=
x<
x;
0:
09
$end
#5
1!
19
#10
0!
09
#15
1!
19
#20
0!
09
#25
1!
19
#30
0!
09
#35
1!
19
#40
0!
09
#45
1!
19
#50
0!
09
#55
1!
19
#60
0!
09
#65
1!
19
#70
0!
09
#75
1!
19
#80
0!
09
#85
1!
19
#90
0!
09
#95
1!
19
#100
0!
09
#105
1!
19
#110
0!
09
#115
1!
19
#120
0!
09
#125
1!
19
#130
0!
09
#135
1!
19
#140
0!
09
#145
1!
19
#150
0!
09
#155
1!
19
#160
0!
09
#165
1!
19
#170
0!
09
#173
1"
1:
xQ
b0 :!
b1110 9!
b1101 9!
b1100 9!
b1011 9!
b1010 9!
b1001 9!
b1000 9!
b111 9!
b110 9!
b101 9!
b100 9!
b11 9!
b10 9!
b1 9!
b0 9!
b11001 9!
b11000 9!
b10111 9!
b10110 9!
b10101 9!
b10100 9!
b10011 9!
b10010 9!
b10001 9!
b10000 9!
b1111 9!
b11111111111111111111111111111111 :!
b1 <!
b111000000000000000000000000 =!
b0 :!
b10110 9!
b10101 9!
b10100 9!
b10011 9!
b10010 9!
b10001 9!
b10000 9!
b1111 9!
b11111111111111111111111111111111 :!
b0 ;!
b0 :!
b10111 9!
b10110 9!
b10101 9!
b10100 9!
b10011 9!
b10010 9!
b10001 9!
b10000 9!
b1111 9!
b11111111111111111111111111111111 :!
b0xxxxxxxxxxxxxxxxxxxxxxxxxxxxxxxxxxxxxxxxxxxxxxxxxxxxxxxxxxxxxxxx ;!
b1000000 <!
b10000000000000000000000000 =!
b0 :!
b11010 9!
b11001 9!
b11000 9!
b10111 9!
b10110 9!
b10101 9!
b10100 9!
b10011 9!
b10010 9!
b10001 9!
b10000 9!
b1111 9!
b11111111111111111111111111111111 :!
b0 :!
b11000 9!
b10111 9!
b10110 9!
b10101 9!
b10100 9!
b10011 9!
b10010 9!
b10001 9!
b10000 9!
b1111 9!
b11111111111111111111111111111111 :!
b0 :!
b11100 9!
b11011 9!
b11010 9!
b11001 9!
b11000 9!
b10111 9!
b10110 9!
b10101 9!
b10100 9!
b10011 9!
b10010 9!
b10001 9!
b10000 9!
b1111 9!
b11111111111111111111111111111111 :!
b0 :!
b11010 9!
b11001 9!
b11000 9!
b10111 9!
b10110 9!
b10101 9!
b10100 9!
b10011 9!
b10010 9!
b10001 9!
b10000 9!
b1111 9!
b11111111111111111111111111111111 :!
b0 ;!
b100000 <!
b0 :!
b11010 9!
b11001 9!
b11000 9!
b10111 9!
b10110 9!
b10101 9!
b10100 9!
b10011 9!
b10010 9!
b10001 9!
b10000 9!
b1111 9!
b11111111111111111111111111111111 :!
b100101 ]!
b100101 \!
#175
1!
19
#180
0!
09
#182
1;
0<
0=
0Q
1L
0K
0J
1I
0H
1G
0F
1E
1D
1C
0B
1A
0@
0?
0>
0N
0P
0O
b0 R
#185
1!
19
#190
0!
09
#195
1!
19
b100110 ]!
b11111010101000011111011100010100 6!
b100110 \!
#200
0!
09
#202
1H
0G
1F
0D
0C
0A
#205
1!
19
#210
0!
09
#215
1!
19
b100111 ]!
b11111010101000011111011100010110 6!
b100111 \!
#220
0!
09
#222
1<
1=
1Q
0L
1J
1G
1D
1C
1P
b11 R
#225
1!
19
b11 M
#230
0!
09
#235
1!
19
b101000 ]!
b11111010101000011111011100011001 6!
b101000 \!
#240
0!
09
b11 h!
#242
0<
0=
0Q
0I
0H
0G
0D
0C
1B
0P
b0 R
#245
1!
19
#250
0!
09
#255
1!
19
b101001 ]!
b11111010101000011111011100011101 6!
b101001 \!
#260
0!
09
#262
1K
1G
0E
1A
1@
#265
1!
19
#270
0!
09
#275
1!
19
b101010 ]!
b11111010101000011111011100100010 6!
b101010 \!
#280
0!
09
#282
1=
1Q
0K
0F
1E
0B
0A
0@
1O
b111011 R
#285
1!
19
b111011 M
#290
0!
09
#295
1!
19
b101011 ]!
b11111010101000011111011100101000 6!
b101011 \!
#300
0!
09
b111011 h!
#302
1L
1K
0J
1I
1H
1F
0E
1C
1A
1@
b0 R
b101110 R
#305
1!
19
b101110 M
#310
0!
09
#315
1!
19
b101100 ]!
b11111010101000011111011100101111 6!
b101100 \!
#320
0!
09
b101110 h!
#322
1<
0=
0L
1J
0I
1D
0C
1B
0A
0O
1N
b0 R
b10101 R
#325
1!
19
b10101 M
#330
0!
09
#335
1!
19
b101101 ]!
b11111010101000011111011100110111 6!
b101101 \!
#340
0!
09
b10101 h!
#342
1=
1L
0J
0G
0F
1A
0@
0N
1P
b0 R
b110101 R
#345
1!
19
b110101 M
#350
0!
09
#355
1!
19
b101110 ]!
b11111010101000011111011101000000 6!
b101110 \!
#360
0!
09
b110101 h!
#362
0=
0K
1I
1G
1F
1E
0D
1C
0B
1N
0P
b0 R
b110000 R
#365
1!
19
b110000 M
#370
0!
09
#375
1!
19
b101111 ]!
b11111010101000011111011101001010 6!
b101111 \!
#380
0!
09
b110000 h!
#382
0<
0Q
0L
1K
0H
0G
0C
1@
0N
b0 R
#385
1!
19
#390
0!
09
#395
1!
19
b110000 ]!
b11111010101000011111011101010101 6!
b110000 \!
#400
0!
09
#402
1J
0I
1D
0@
#405
1!
19
#410
0!
09
#415
1!
19
b110001 ]!
b11111010101000011111011101100001 6!
b110001 \!
#420
0!
09
#422
1I
0E
1C
0A
1@
#425
1!
19
#430
0!
09
#435
1!
19
b110010 ]!
b11111010101000011111011101101110 6!
b110010 \!
#440
0!
09
#442
0;
0J
1H
1G
0C
1B
#445
1!
19
#450
0!
09
#455
1!
19
b110011 ]!
b11111010101000011111011101111100 6!
b110011 \!
#460
0!
09
#462
1;
1L
0K
1J
0I
0G
0F
1E
0D
1C
0B
1A
0@
#465
1!
19
#470
0!
09
#471
b110100 ]!
b1001110010001110111000000010100 6!
b110100 \!
#475
1!
19
b110101 ]!
b11111010101000011111011110001011 6!
b110101 \!
#480
0!
09
#482
0J
0H
1G
1F
0E
0C
0A
1@
#485
1!
19
#490
0!
09
#495
1!
19
b110110 ]!
b11111010101000011111011110011011 6!
b110110 \!
#500
0!
09
#502
1<
1Q
0L
1J
1I
1H
0G
0F
1A
1N
b100 R
#505
1!
19
b100 M
#510
0!
09
#515
1!
19
b110111 ]!
b11111010101000011111011110101100 6!
b110111 \!
#520
0!
09
b100 h!
#522
1=
1L
0I
1G
1D
1C
1B
0A
0N
1P
b0 R
b110011 R
#525
1!
19
b110011 M
#530
0!
09
#535
1!
19
b111000 ]!
b11111010101000011111011110111110 6!
b111000 \!
#540
0!
09
b110011 h!
#542
0;
0=
0Q
0J
1I
0H
0G
1F
1E
0D
1A
0@
1N
0P
b0 R
b111111 R
#545
1!
19
#550
0!
09
#555
1!
19
b111001 ]!
b11111010101000011111011111010001 6!
b111001 \!
#560
0!
09
#562
1;
0<
1=
1Q
0L
1K
1G
0E
0B
1@
0N
1O
b0 R
b111101 R
#565
1!
19
b111101 M
#570
0!
09
#575
1!
19
b111010 ]!
b11111010101000011111011111100101 6!
b111010 \!
#580
0!
09
b111101 h!
#582
1<
0K
1J
1H
1D
1B
0A
0O
1P
b0 R
b111000 R
#585
1!
19
b111000 M
#590
0!
09
#595
1!
19
b111011 ]!
b11111010101000011111011111111010 6!
b111011 \!
#600
0!
09
b111000 h!
#602
0<
1L
1K
0J
0I
0H
0B
1A
0@
1O
0P
b0 R
b111110 R
#605
1!
19
b111110 M
#610
0!
09
#615
1!
19
b111100 ]!
b11111010101000011111100000010000 6!
b111100 \!
#620
0!
09
b111110 h!
#622
1<
0K
1I
0F
1E
0C
0A
1@
0O
1P
b0 R
b100 R
#625
1!
19
b100 M
#630
0!
09
#635
1!
19
b111101 ]!
b11111010101000011111100000100111 6!
b111101 \!
#640
0!
09
b100 h!
#642
1K
0G
1F
0E
0D
1B
1A
0@
b0 R
b1101 R
#645
1!
19
b1101 M
#650
0!
09
#655
1!
19
b111110 ]!
b11111010101000011111100000111111 6!
b111110 \!
#660
0!
09
b1101 h!
#662
0<
0K
1G
0F
1D
0A
1O
0P
b0 R
b10010 R
#665
1!
19
b10010 M
#670
0!
09
#675
1!
19
b111111 ]!
b11111010101000011111100001011000 6!
b111111 \!
#680
0!
09
b10010 h!
#682
0;
0=
0Q
0L
0G
1F
0O
b0 R
#685
1!
19
#690
0!
09
#695
1!
19
b1000000 ]!
b11111010101000011111100001110010 6!
b1000000 \!
#700
0!
09
#702
1;
1=
1Q
1J
1H
1G
0F
1E
1C
1@
1O
b111001 R
#705
1!
19
b111001 M
#710
0!
09
#715
1!
19
b1000001 ]!
b11111010101000011111100010001101 6!
b1000001 \!
#720
0!
09
b111001 h!
#722
1L
1K
0I
0H
0G
1F
0D
0B
b0 R
b111001 R
#725
1!
19
#730
0!
09
#735
1!
19
b1000010 ]!
b11111010101000011111100010101001 6!
b1000010 \!
#740
0!
09
#742
1<
0=
0L
0J
1H
0F
0E
1D
0C
0O
1N
b0 R
b10110 R
#745
1!
19
b10110 M
#750
0!
09
#755
1!
19
b1000011 ]!
b11111010101000011111100011000110 6!
b1000011 \!
#760
0!
09
b10110 h!
#762
0<
0Q
0K
1I
0H
1G
1F
1E
0D
1B
0@
0N
b0 R
#765
1!
19
#770
0!
09
#775
1!
19
b1000100 ]!
b11111010101000011111100011100100 6!
b1000100 \!
#780
0!
09
#782
1H
1A
1@
#785
1!
19
#790
0!
09
#795
1!
19
b1000101 ]!
b11111010101000011111100100000011 6!
b1000101 \!
#800
0!
09
#802
1=
1Q
1L
1K
0F
0E
1D
0B
0A
0@
1O
b110110 R
#805
1!
19
b110110 M
#810
0!
09
#815
1!
19
b1000110 ]!
b11111010101000011111100100100011 6!
b1000110 \!
#820
0!
09
b110110 h!
#822
1<
0K
0H
1E
0D
0O
1P
b0 R
b1100 R
#825
1!
19
b1100 M
#830
0!
09
#835
1!
19
b1000111 ]!
b11111010101000011111100101000100 6!
b1000111 \!
#840
0!
09
b1100 h!
#842
0;
0Q
0L
1K
1J
1F
0E
1A
b0 R
b10 R
#845
1!
19
#850
0!
09
#855
1!
19
b1001000 ]!
b11111010101000011111100101100110 6!
b1001000 \!
#860
0!
09
#862
1;
0=
1Q
1L
0J
0I
1H
0G
0F
1E
0A
1N
0P
b0 R
b110111 R
#865
1!
19
b110111 M
#870
0!
09
#875
1!
19
b1001001 ]!
b11111010101000011111100110001001 6!
b1001001 \!
#880
0!
09
b110111 h!
#882
1=
0L
0K
1I
1D
1C
1B
1A
1@
0N
1P
b0 R
b111010 R
#885
1!
19
b111010 M
#890
0!
09
#895
1!
19
b1001010 ]!
b11111010101000011111100110101101 6!
b1001010 \!
#900
0!
09
b111010 h!
#902
0<
1L
1K
0I
1F
0E
0C
0A
1O
0P
b0 R
b111101 R
#905
1!
19
b111101 M
#910
0!
09
#915
1!
19
b1001011 ]!
b11111010101000011111100111010010 6!
b1001011 \!
#916
b1001100 ]!
b1001110010001110111000000010110 6!
b1001100 \!
#920
0!
09
b111101 h!
#922
1<
0=
0K
1J
1G
0D
0B
0O
1N
b0 R
b1110 R
#925
1!
19
b1110 M
#930
0!
09
#935
1!
19
b1001101 ]!
b11111010101000011111100111111000 6!
b1001101 \!
#940
0!
09
b1110 h!
#942
0<
1=
1I
0H
1D
1B
0N
1O
b0 R
b11000 R
#945
1!
19
b11000 M
#950
0!
09
#955
1!
19
b1001110 ]!
b11111010101000011111101000011111 6!
b1001110 \!
#960
0!
09
b11000 h!
#962
0=
0Q
0L
1K
0J
0G
0F
1E
0D
1C
0@
0O
b0 R
#965
1!
19
#970
0!
09
#975
1!
19
b1001111 ]!
b11111010101000011111101001000111 6!
b1001111 \!
#980
0!
09
#982
1=
1Q
1L
0I
1H
1G
1D
1@
1O
b110000 R
#985
1!
19
b110000 M
#990
0!
09
#995
1!
19
b1010000 ]!
b11111010101000011111101001110000 6!
b1010000 \!
#1000
0!
09
b110000 h!
#1002
1<
0K
1J
1I
0G
1F
0C
0B
0O
1P
b0 R
b10011 R
#1005
1!
19
b10011 M
#1010
0!
09
#1015
1!
19
b1010001 ]!
b11111010101000011111101010011010 6!
b1010001 \!
#1020
0!
09
b10011 h!
#1022
0<
0=
0Q
1K
0J
1G
0F
0D
1C
1A
0@
0P
b0 R
#1025
1!
19
#1030
0!
09
#1035
1!
19
b1010010 ]!
b11111010101000011111101011000101 6!
b1010010 \!
#1040
0!
09
#1042
1<
1Q
0L
0G
1B
0A
1@
1N
b111010 R
#1045
1!
19
b111010 M
#1050
0!
09
#1055
1!
19
b1010011 ]!
b11111010101000011111101011110001 6!
b1010011 \!
#1060
0!
09
b111010 h!
#1062
0;
0<
0Q
0I
0H
1G
1F
0E
1D
0C
0@
0N
b0 R
#1065
1!
19
#1070
0!
09
#1075
1!
19
b1010100 ]!
b11111010101000011111101100011110 6!
b1010100 \!
#1080
0!
09
#1082
1;
1<
1Q
1I
0F
1E
0D
1C
0B
1@
1N
b101011 R
#1085
1!
19
b101011 M
#1090
0!
09
#1095
1!
19
b1010101 ]!
b11111010101000011111101101001100 6!
b1010101 \!
#1100
0!
09
b101011 h!
#1102
0<
1=
1J
0I
1D
0C
1B
0@
0N
1O
b0 R
b10011 R
#1105
1!
19
b10011 M
#1110
0!
09
#1115
1!
19
b1010110 ]!
b11111010101000011111101101111011 6!
b1010110 \!
#1120
0!
09
b10011 h!
#1122
0;
0=
0Q
0J
1I
1H
1F
1C
1@
0O
b0 R
#1125
1!
19
#1130
0!
09
#1135
1!
19
b1010111 ]!
b11111010101000011111101110101011 6!
b1010111 \!
#1140
0!
09
#1142
1;
1=
1Q
1J
0H
0F
0D
0C
0B
0@
1O
b111011 R
#1145
1!
19
b111011 M
#1150
0!
09
#1155
1!
19
b1011000 ]!
b11111010101000011111101111011100 6!
b1011000 \!
#1160
0!
09
b111011 h!
#1162
0=
0Q
1L
0J
1F
1D
1@
0O
b0 R
#1165
1!
19
#1170
0!
09
#1175
1!
19
b1011001 ]!
b11111010101000011111110000001110 6!
b1011001 \!
#1180
0!
09
#1182
1=
1Q
0I
0E
1A
0@
1O
b1110 R
#1185
1!
19
b1110 M
#1190
0!
09
#1195
1!
19
b1011010 ]!
b11111010101000011111110001000001 6!
b1011010 \!
#1200
0!
09
b1110 h!
#1202
1<
0L
1I
0G
0F
1E
1C
1B
0A
0O
1P
b0 R
b101001 R
#1205
1!
19
b101001 M
#1210
0!
09
#1215
1!
19
b1011011 ]!
b11111010101000011111110001110101 6!
b1011011 \!
#1220
0!
09
b101001 h!
#1222
1L
1J
0I
1F
0D
0C
1@
b0 R
b111110 R
#1225
1!
19
b111110 M
#1230
0!
09
#1235
1!
19
b1011100 ]!
b11111010101000011111110010101010 6!
b1011100 \!
#1240
0!
09
b111110 h!
#1242
0=
1H
0E
1D
1C
1A
1N
0P
b0 R
b11 R
#1245
1!
19
b11 M
#1247
b1011101 ]!
b1001110010001110111000000011001 6!
b1011101 \!
0"
0:
0Q
b0 :!
b1110 9!
b1101 9!
b1100 9!
b1011 9!
b1010 9!
b1001 9!
b1000 9!
b111 9!
b110 9!
b101 9!
b100 9!
b11 9!
b10 9!
b1 9!
b0 9!
b100 ;!
b11001 9!
b11000 9!
b10111 9!
b10110 9!
b10101 9!
b10100 9!
b10011 9!
b10010 9!
b10001 9!
b10000 9!
b1111 9!
b11111111111111111111111111111111 :!
b0 ;!
b1 <!
b111000000000000000000000000 =!
b0 :!
b10110 9!
b10101 9!
b10100 9!
b10011 9!
b10010 9!
b10001 9!
b10000 9!
b1111 9!
b11111111111111111111111111111111 :!
b0 :!
b10111 9!
b10110 9!
b10101 9!
b10100 9!
b10011 9!
b10010 9!
b10001 9!
b10000 9!
b1111 9!
b11111111111111111111111111111111 :!
b0xxxxxxxxxxxxxxxxxxxxxxxxxxxxxxxxxxxxxxxxxxxxxxxxxxxxxxxxxxxxxxxx ;!
b1000000 <!
b10000000000000000000000000 =!
b0 :!
b11010 9!
b11001 9!
b11000 9!
b10111 9!
b10110 9!
b10101 9!
b10100 9!
b10011 9!
b10010 9!
b10001 9!
b10000 9!
b1111 9!
b11111111111111111111111111111111 :!
b0 :!
b11000 9!
b10111 9!
b10110 9!
b10101 9!
b10100 9!
b10011 9!
b10010 9!
b10001 9!
b10000 9!
b1111 9!
b11111111111111111111111111111111 :!
b0 :!
b11100 9!
b11011 9!
b11010 9!
b11001 9!
b11000 9!
b10111 9!
b10110 9!
b10101 9!
b10100 9!
b10011 9!
b10010 9!
b10001 9!
b10000 9!
b1111 9!
b11111111111111111111111111111111 :!
b0 :!
b11010 9!
b11001 9!
b11000 9!
b10111 9!
b10110 9!
b10101 9!
b10100 9!
b10011 9!
b10010 9!
b10001 9!
b10000 9!
b1111 9!
b11111111111111111111111111111111 :!
b1 ;!
b100000 <!
b0 :!
b11010 9!
b11001 9!
b11000 9!
b10111 9!
b10110 9!
b10101 9!
b10100 9!
b10011 9!
b10010 9!
b10001 9!
b10000 9!
b1111 9!
b11111111111111111111111111111111 :!
b1001110001000101010001001 6!
b111000101011010000110101000001 6!
b1001110010001110111000000011101 6!
b11111010101000011111110011100000 6!
b0 M
#1250
0!
09
#1255
1!
19
b0 h!
#1260
0!
09
#1265
1!
19
#1270
0!
09
#1275
1!
19
#1280
0!
09
#1285
1!
19
#1290
0!
09
#1295
1!
19
#1300
0!
09
#1305
1!
19
#1310
0!
09
#1315
1!
19
#1320
0!
09
#1325
1!
19
#1330
0!
09
#1335
1!
19
#1340
0!
09
#1345
1!
19
#1350
0!
09
#1355
1!
19
